Example 1: 男女で使用割合が大きく異なる薬剤 • openNDB
…
result

男性だけが使っている薬剤

data_trans %>% filter(diff_by_sex==0)

## # A tibble: 135 x 4
## # Groups:   drugname [135]
##    drugname                                male female diff_by_sex
##    <chr>                                  <dbl>  <dbl>       <dbl>
##  1 ｌ－メントール「コザカイ・Ｍ」         1048.      0           0
##  2 ＭＳツワイスロンカプセル６０ｍｇ       3947       0           0
##  3 アスコルビン酸（山善）                 1036       0           0
##  4 アスコルビン酸散「マルイシ」２０％     1038       0           0
##  5 アヘン散　１０％                       4427.      0           0
##  6 アヘン散「第一三共」　１０％           8468       0           0
##  7 アボルブカプセル０．５ｍｇ         98352606.      0           0
##  8 アメパロモカプセル２５０ｍｇ           7662       0           0
##  9 アランダール錠２５　２５ｍｇ          23630       0           0
## 10 アリスメット錠５０ｍｇ                 6545       0           0
## # … with 125 more rows

135薬剤が該当した。

女性も使っているが男性が多い薬剤

data_trans %>% filter(diff_by_sex!=0) %>% arrange(diff_by_sex)

## # A tibble: 4,283 x 4
## # Groups:   drugname [4,283]
##    drugname                                           male female diff_by_sex
##    <chr>                                             <dbl>  <dbl>       <dbl>
##  1 エルサメットＳ配合錠                          29685243    2340   0.0000788
##  2 ユリーフＯＤ錠４ｍｇ                         145445377.  12130   0.0000834
##  3 タムスロシン塩酸塩ＯＤ錠０．２ｍｇ「トーワ」  13228456.   1306   0.0000987
##  4 タムスロシン塩酸塩ＯＤ錠０．２ｍｇ「日医工」  11796666    1182   0.000100 
##  5 ユリーフ錠４ｍｇ                             189937688.  19951   0.000105 
##  6 タムスロシン塩酸塩ＯＤ錠０．２ｍｇ「日新」     7378752.   1132   0.000153 
##  7 セルニルトン錠                               134418217   26266   0.000195 
##  8 ハルナールＤ錠０．１ｍｇ                       5971890.   1265   0.000212 
##  9 フリバスＯＤ錠２５ｍｇ                        11805186    2806   0.000238 
## 10 ハルナールＤ錠０．２ｍｇ                      46453414.  11365   0.000245 
## # … with 4,273 more rows

男性も使っているが女性が多い薬剤

data_trans %>% filter(diff_by_sex!=Inf) %>% arrange(desc(diff_by_sex))

## # A tibble: 4,297 x 4
## # Groups:   drugname [4,297]
##    drugname                                  male    female diff_by_sex
##    <chr>                                    <dbl>     <dbl>       <dbl>
##  1 デュファストン錠５ｍｇ                    1000 17078805       17079.
##  2 ジエノゲスト錠１ｍｇ「モチダ」            1220 18626850       15268.
##  3 ジュリナ錠０．５ｍｇ                      1298  7390454.       5694.
##  4 ビビアント錠２０ｍｇ                     26015 84016092        3230.
##  5 ラロキシフェン塩酸塩錠６０ｍｇ「サワイ」 17825 45342474.       2544.
##  6 エビスタ錠６０ｍｇ                       23497 59730170        2542.
##  7 アナストロゾール錠１ｍｇ「サワイ」        1100  2333639        2121.
##  8 アナストロゾール錠１ｍｇ「サンド」        1465  2190555        1495.
##  9 アナストロゾール錠１ｍｇ「ＮＫ」          5441  6968124.       1281.
## 10 アナストロゾール錠１ｍｇ「トーワ」        1297  1629435        1256.
## # … with 4,287 more rows

女性だけが使っている薬剤

data_trans %>% filter(diff_by_sex==Inf)

## # A tibble: 121 x 4
## # Groups:   drugname [121]
##    drugname                              male  female diff_by_sex
##    <chr>                                <dbl>   <dbl>       <dbl>
##  1 「山善」第二リン灰                       0    2983         Inf
##  2 ５－ＦＵ錠１００協和　１００ｍｇ         0   13264         Inf
##  3 アナストロゾール錠１ｍｇ「ＥＥ」         0 1798447         Inf
##  4 アナストロゾール錠１ｍｇ「Ｆ」           0 1106575         Inf
##  5 アナストロゾール錠１ｍｇ「ＪＧ」         0 1270669         Inf
##  6 アナストロゾール錠１ｍｇ「ＮＰ」         0  375952         Inf
##  7 アナストロゾール錠１ｍｇ「ケミファ」     0  673857         Inf
##  8 アナストロゾール錠１ｍｇ「マイラン」     0  292239         Inf
##  9 アナストロゾール錠１ｍｇ「日医工」       0 1659421         Inf
## 10 アナストロゾール錠１ｍｇ「明治」         0 1364084         Inf
## # … with 111 more rows
…
